aula4
…
Instalar pacotes

library(ggplot2)
library(magrittr)
library(dplyr)
library(forcats)
library(readr)
library(tidyr)

Ler dados

dados <- read_rds("inputs/dados_imdb.rds")
dados

## # A tibble: 5,043 × 15
##                                    movie_title title_year
##                                          <chr>      <int>
## 1                                      Avatar        2009
## 2    Pirates of the Caribbean: At World's End        2007
## 3                                     Spectre        2015
## 4                       The Dark Knight Rises        2012
## 5  Star Wars: Episode VII - The Force Awakens          NA
## 6                                 John Carter        2012
## 7                                Spider-Man 3        2007
## 8                                     Tangled        2010
## 9                     Avengers: Age of Ultron        2015
## 10     Harry Potter and the Half-Blood Prince        2009
## # ... with 5,033 more rows, and 13 more variables: director_name <chr>,
## #   duration <int>, color <chr>, genres <chr>, country <chr>,
## #   content_rating <chr>, budget <int>, gross <int>, imdb_score <dbl>,
## #   movie_facebook_likes <int>, actor_1_name <chr>, actor_2_name <chr>,
## #   actor_3_name <chr>
…
Boxplot: Arrecadações x diretores (7 com mais filmes)

dados %>%
  filter(country == "USA") %>%
  count(director_name, sort = T)

## # A tibble: 1,813 × 2
##        director_name     n
##                <chr> <int>
## 1               <NA>    74
## 2   Steven Spielberg    24
## 3     Clint Eastwood    20
## 4    Martin Scorsese    20
## 5        Woody Allen    18
## 6          Spike Lee    16
## 7         Tim Burton    16
## 8  Steven Soderbergh    15
## 9       Renny Harlin    14
## 10      Ridley Scott    14
## # ... with 1,803 more rows
…
